{
    "balls": [
        {
            "id": "ball_normal",
            "image": "vanilla:ball_normal",
            "radius": 15,
            "speed": 1,
            "textureOffsetX": -2,
            "textureOffsetY": -7
        }
    ],
    "bricks": [
        {
            "breakSound": "vanilla:break1|vanilla:break2|vanilla:break3|vanilla:break4",
            "height": 40,
            "id": "brick_normal",
            "images": [
                "vanilla:brick_normal_1|vanilla:brick_normal_2|vanilla:brick_normal_3"
            ],
            "width": 100
        },
        {
            "breakSound": "vanilla:break1|vanilla:break2|vanilla:break3|vanilla:break4",
            "height": 40,
            "id": "brick_strong",
            "images": [
                "vanilla:brick_normal_1|vanilla:brick_normal_2|vanilla:brick_normal_3",
                "vanilla:brick_strong_1|vanilla:brick_strong_2|vanilla:brick_strong_3"
            ],
            "width": 100
        },
        {
            "breakSound": "vanilla:break1|vanilla:break2|vanilla:break3|vanilla:break4",
            "height": 40,
            "id": "brick_perfect",
            "images": [
                "vanilla:brick_normal_1|vanilla:brick_normal_2|vanilla:brick_normal_3",
                "vanilla:brick_strong_1|vanilla:brick_strong_2|vanilla:brick_strong_3",
                "vanilla:brick_strong_1|vanilla:brick_strong_2|vanilla:brick_strong_3",
                "vanilla:brick_perfect"
            ],
            "width": 100
        }
    ],
    "dependencies": [],
    "games": [
        {
            "description": "A normal game",
            "id": "game_normal",
            "levels": [
                "vanilla:level_1"
            ],
            "multiplayer": true,
            "network": false,
            "title": "Normal Game"
        },
        {
            "description": "A normal game",
            "id": "game_normal_2",
            "levels": [
                "vanilla:level_1",
                "vanilla:level_1",
                "vanilla:level_1",
                "vanilla:level_1"
            ],
            "multiplayer": true,
            "network": false,
            "title": "Normal Game 2"
        },
        {
            "description": "An infinite game",
            "id": "game_infinite",
            "levels": [
                "vanilla:level_infinite"
            ],
            "multiplayer": false,
            "network": false,
            "title": "Infinite Game"
        },
        {
            "description": "An long game",
            "id": "game_long",
            "levels": [
                "vanilla:level_easy",
                "vanilla:level_easy",
                "vanilla:level_medium",
                "vanilla:level_medium",
                "vanilla:level_medium",
                "vanilla:level_hard",
                "vanilla:level_hard",
                "vanilla:level_hard",
                "vanilla:level_hard"
            ],
            "multiplayer": false,
            "network": false,
            "title": "A long Game"
        }
    ],
    "id": "vanilla",
    "images": [
        {
            "filename": "blank",
            "id": "blank"
        },
        {
            "filename": "brick_weak",
            "id": "brick_weak"
        },
        {
            "filename": "brick_normal_1",
            "id": "brick_normal_1"
        },
        {
            "filename": "brick_normal_2",
            "id": "brick_normal_2"
        },
        {
            "filename": "brick_normal_3",
            "id": "brick_normal_3"
        },
        {
            "filename": "brick_strong_1",
            "id": "brick_strong_1"
        },
        {
            "filename": "brick_strong_2",
            "id": "brick_strong_2"
        },
        {
            "filename": "brick_strong_3",
            "id": "brick_strong_3"
        },
        {
            "filename": "brick_perfect",
            "id": "brick_perfect"
        },
        {
            "filename": "speed_powerup",
            "id": "speed_powerup"
        },
        {
            "filename": "bonus_powerup",
            "id": "bonus_powerup"
        },
        {
            "filename": "life_powerup",
            "id": "life_powerup"
        },
        {
            "filename": "larger_powerup",
            "id": "larger_powerup"
        },
        {
            "filename": "ball_powerup",
            "id": "ball_powerup"
        },
        {
            "filename": "honey_drop",
            "id": "honey_drop"
        },
        {
            "filename": "paddle_normal",
            "id": "paddle_normal"
        },
        {
            "filename": "paddle_large",
            "id": "paddle_large"
        },
        {
            "filename": "ball_normal",
            "id": "ball_normal"
        },
        {
            "filename": "multiplier_powerup",
            "id": "multiplier_powerup"
        },
        {
            "filename": "ai_powerup",
            "id": "ai_powerup"
        }
    ],
    "levelFiles": [
        {
            "filename": "level_1",
            "id": "level_1"
        },
        {
            "filename": "level_infinite",
            "id": "level_infinite"
        },
        {
            "filename": "level_easy",
            "id": "level_easy"
        },
        {
            "filename": "level_medium",
            "id": "level_medium"
        },
        {
            "filename": "level_hard",
            "id": "level_hard"
        }
    ],
    "name": "Ballistic Bees",
    "paddles": [
        {
            "bouceSound": "vanilla:ball_bounce",
            "height": 20,
            "id": "paddle_normal",
            "image": "vanilla:paddle_normal",
            "textureOffsetX": -34,
            "textureOffsetY": -16,
            "width": 100
        },
        {
            "bouceSound": "vanilla:ball_bounce",
            "height": 20,
            "id": "paddle_large",
            "image": "vanilla:paddle_large",
            "textureOffsetX": -34,
            "textureOffsetY": -16,
            "width": 155
        }
    ],
    "powerups": [
        {
            "id": "powerup_normal",
            "images": [
                "vanilla:image"
            ]
        }
    ],
    "sounds": [
        {
            "filename": "button_rollover",
            "id": "button_rollover"
        },
        {
            "filename": "button_press",
            "id": "button_press"
        },
        {
            "filename": "ball_bounce",
            "id": "ball_bounce"
        },
        {
            "filename": "break1",
            "id": "break1"
        },
        {
            "filename": "break2",
            "id": "break2"
        },
        {
            "filename": "break3",
            "id": "break3"
        },
        {
            "filename": "break4",
            "id": "break4"
        }
    ]
}
