{
    "type":"infinite",
    "width":"full",
    "rowOrder":"random",
    "rowsOnScreen":5,
    "rowsToPlay": 5,
    "rows" : [
        ["vanilla:brick_normal|vanilla:brick_strong","vanilla:brick_normal|vanilla:brick_strong","vanilla:brick_normal|vanilla:brick_strong","vanilla:brick_normal|vanilla:brick_strong","vanilla:brick_normal|vanilla:brick_strong","vanilla:brick_normal|vanilla:brick_strong","vanilla:brick_normal|vanilla:brick_strong"],
        ["vanilla:brick_normal|vanilla:brick_strong","vanilla:brick_normal|vanilla:brick_strong","vanilla:brick_normal|vanilla:brick_strong","vanilla:brick_normal|vanilla:brick_strong","vanilla:brick_normal|vanilla:brick_strong","vanilla:brick_normal|vanilla:brick_strong","vanilla:brick_normal|vanilla:brick_strong"],
        ["vanilla:brick_normal|vanilla:brick_strong","vanilla:brick_normal|vanilla:brick_strong","vanilla:brick_normal|vanilla:brick_strong","vanilla:brick_normal|vanilla:brick_strong","vanilla:brick_normal|vanilla:brick_strong","vanilla:brick_normal|vanilla:brick_strong","vanilla:brick_normal|vanilla:brick_strong"],
        ["vanilla:brick_strong","vanilla:brick_strong","vanilla:brick_strong","vanilla:brick_strong","vanilla:brick_strong","vanilla:brick_strong","vanilla:brick_strong"],
        ["vanilla:brick_normal","vanilla:brick_normal","vanilla:brick_normal","vanilla:brick_normal","vanilla:brick_normal","vanilla:brick_normal","vanilla:brick_normal"],
        ["vanilla:brick_normal","vanilla:brick_normal","vanilla:brick_normal","vanilla:brick_normal","vanilla:brick_normal","vanilla:brick_normal","vanilla:brick_normal"],
        ["vanilla:brick_normal","vanilla:brick_normal","vanilla:brick_normal","vanilla:brick_normal","vanilla:brick_normal","vanilla:brick_normal","vanilla:brick_normal"],
        ["vanilla:brick_normal","vanilla:brick_normal","vanilla:brick_normal","vanilla:brick_normal","vanilla:brick_normal","vanilla:brick_normal","vanilla:brick_normal"],
        ["vanilla:brick_normal","vanilla:brick_normal","vanilla:brick_normal","vanilla:brick_normal","vanilla:brick_normal","vanilla:brick_normal","vanilla:brick_normal"]
    ]
}
